<?xml version="1.0" encoding="UTF-8"?>
<svg xmlns="http://www.w3.org/2000/svg" xmlns:xlink="http://www.w3.org/1999/xlink" width="512px" height="512px" viewBox="0 0 512 512" version="1.1">
<g id="surface1">
<path style=" stroke:none;fill-rule:nonzero;fill:rgb(100%,100%,100%);fill-opacity:1;" d="M 168 32 C 168 14.300781 182.300781 0 200 0 L 216 0 C 233.699219 0 248 14.300781 248 32 L 256 32 C 273.699219 32 288 46.300781 288 64 L 288 288 C 288 305.699219 273.699219 320 256 320 L 248 320 C 248 337.699219 233.699219 352 216 352 L 200 352 C 182.300781 352 168 337.699219 168 320 L 160 320 C 142.300781 320 128 305.699219 128 288 L 128 64 C 128 46.300781 142.300781 32 160 32 Z M 32 448 L 320 448 C 390.699219 448 448 390.699219 448 320 C 448 249.300781 390.699219 192 320 192 L 320 128 C 426 128 512 214 512 320 C 512 369.199219 493.5 414 463.101562 448 L 480 448 C 497.699219 448 512 462.300781 512 480 C 512 497.699219 497.699219 512 480 512 L 32 512 C 14.300781 512 0 497.699219 0 480 C 0 462.300781 14.300781 448 32 448 Z M 112 384 L 304 384 C 312.800781 384 320 391.199219 320 400 C 320 408.800781 312.800781 416 304 416 L 112 416 C 103.199219 416 96 408.800781 96 400 C 96 391.199219 103.199219 384 112 384 Z M 112 384 "/>
</g>
</svg>
